Phylum,Species,Order.Class,Date,Method,Standard,Good,2C [pg],SD [pg],1C [Mbp],SD [Mbp],Source,C.value,C.value.sd
Nemertea,Lineus acutifrons II,Pilidiophora:Heteronemertea,2019-03-28,FCM,Glycine,1,3.864696537828,0.063973758727,1889.83660699796,31.283168017656,this study,1.9323482689140694,0.03198687936365644
Nemertea,Lineus ruber,Pilidiophora:Heteronemertea,2018-11-12,FCM,Pisum,1,2.745207290689,0.040055695089,1342.40636514699,19.587234898631,this study,1.3726036453445707,0.020027847544612475
Nemertea,Cephalothrix simula,Palaeonemertea,2018-11-12,FCM,Pisum,1,2.558048623465,0.012759577623,1250.88577687456,6.239433457825,this study,1.279024311732679,0.0063797888116820045
Nemertea,Cerebratulus marginatus,Pilidiophora:Heteronemertea,2014-10-01,FCM,rainbow trout,1,2.34,0.03,1144.26,29.34,Mulligan et al. 2014,1.17,0.03
Nemertea,Lineus viridis,Pilidiophora:Heteronemertea,2018-11-12,FCM,Pisum,1,2.196356976898,0.051835386226,1074.01856170313,25.347503864603,this study,1.0981784884490082,0.025917693113091
Nemertea,Carinoma armandi,Palaeonemertea,2019-03-28,FCM,Glycine,1,2.02860610032,0.03250951044,991.988383056328,15.897150605209,this study,1.0143030501598445,0.016254755220050102
Nemertea,Lineus geniculatus,Pilidiophora:Heteronemertea,2018-01-01,k-mer,,1,1.756646216768916,,859,,Luo et al. 2018,0.878323108384458,
Nemertea,Cephalothrix hermaphroditicus,Palaeonemertea,2018-11-12,FCM,Glycine,1,1.733571910956,0.008815246051,847.716664457515,4.310655318808,this study,0.8667859554780317,0.004407623025366053
Nemertea,Lineus acutifrons I,Pilidiophora:Heteronemertea,2019-03-05,FCM,Glycine,1,1.706271729028,0.050546880172,834.366875494842,24.717424403903,this study,0.8531358645141534,0.025273440085790386
Nemertea,Riseriellus occultus,Pilidiophora:Heteronemertea,2018-11-12,FCM,Glycine,1,1.444063066401,0.021147461201,706.146839469913,10.34110852746,this study,0.72203153320032,0.010573730600674847
Nemertea,Tetrastemma melanocephalum,Hoplonemertea:Monostilifera,2019-03-05,FCM,Glycine,1,1.344370162824,0.037200502203,657.3970096208,18.19104557734,this study,0.672185081411861,0.01860025110157464
Nemertea,Cephalothrix oestrymnicus,Palaeonemertea,2019-03-28,FCM,Glycine,1,1.32175197739,0.02503900739,646.336716943924,12.244074613851,this study,0.6608759886952188,0.012519503695144171
Nemertea,Prosorhochmus claparedii,Hoplonemertea:Monostilifera,2018-11-12,FCM,Pisum,1,1.291614456421,0.023193829946,631.599469189767,11.341782843737,this study,0.6458072282103957,0.011596914973146218
Nemertea,Micrura purpurea,Pilidiophora:Heteronemertea,2019-03-28,FCM,Glycine,1,1.239686444376,0.020054337425,606.20667129979,9.806571000702,this study,0.6198432221879243,0.010027168712374234
Nemertea,Amphiporus lactifloreus,Hoplonemertea:Monostilifera,2019-03-28,FCM,Glycine,1,1.177456059278,0.012544601907,575.776012987152,6.134310332663,this study,0.5887280296392147,0.0062723009536431494
Nemertea,Lineus sanguineus,Pilidiophora:Heteronemertea,2018-11-12,FCM,Glycine,1,1.171637155121,0.02669599361,572.930568853935,13.054340875263,this study,0.5858185775602608,0.013347996804972392
Nemertea,Micrura wilsoni,Pilidiophora:Heteronemertea,2014-10-01,FCM,rainbow trout,1,1.16,,567.24,,Mulligan et al. 2014,0.58,
Nemertea,Nipponnemertes bimaculata,Hoplonemertea:Monostilifera,2014-10-01,FCM,rainbow trout,1,1.14,0.01,557.46,9.78,Mulligan et al. 2014,0.5700000000000001,0.01
Nemertea,Micrura verrilli,Pilidiophora:Heteronemertea,2014-10-01,FCM,rainbow trout,1,1.1,,537.9,,Mulligan et al. 2014,0.5499999999999999,
Nemertea,Lineus longissimus,Pilidiophora:Heteronemertea,2019-03-28,FCM,Glycine,1,0.975588288756,0.035955611934,477.062673201508,17.582294235882,this study,0.48779414437782004,0.017977805967159508
Nemertea,Lineus lacteus,Pilidiophora:Heteronemertea,2018-11-12,FCM,Glycine,1,0.971133596369,0.021803629679,474.884328624649,10.661974913165,this study,0.4855667981847127,0.010901814839637015
Nemertea,Maculaura alaskensis,Pilidiophora:Heteronemertea,2014-10-01,FCM,rainbow trout,1,0.82,,400.98,,Mulligan et al. 2014,0.41000000000000003,
Nemertea,Tubulanus polymorphus,Palaeonemertea,2014-10-01,FCM,rainbow trout,1,0.64,0.04,312.96,39.12,Mulligan et al. 2014,0.32,0.04
Nemertea,Paranemertes peregrina,Hoplonemertea:Monostilifera,2014-10-01,FCM,rainbow trout,1,0.58,0,283.62,0,Mulligan et al. 2014,0.29,0
Nemertea,Paranemertes sanjuanensis,Hoplonemertea:Monostilifera,2014-10-01,FCM,rainbow trout,1,0.56,0.08,273.84,78.24,Mulligan et al. 2014,0.27999999999999997,0.08
Nemertea,Carinina ochracea,Palaeonemertea,2018-11-12,FCM,Glycine,1,0.54167276265,0.002106797824,264.877980935741,1.030224135766,this study,0.2708363813248885,0.0010533989118261759
Nemertea,Emplectonema gracile,Hoplonemertea:Monostilifera,2019-03-28,FCM,Glycine,1,0.428926670241,0.01109186962,209.745141747858,5.423924244009,this study,0.21446333512050922,0.005545934809825154
